filename,width,height,class,xmin,ymin,xmax,ymax
20190503_103628.jpg,5664,4248,motor,1672,311,3834,4068
20190503_103628.jpg,5664,4248,helm,2453,368,3322,1105
IMG_18.JPG,800,600,motor,398,215,450,318
IMG_18.JPG,800,600,helm,423,216,435,233
IMG_111.JPG,800,600,motor,332,191,434,365
IMG_111.JPG,800,600,motor,566,190,590,251
IMG_111.JPG,800,600,helm,378,199,403,230
IMG_111.JPG,800,600,helm,575,190,583,202
IMG_36.JPG,800,600,motor,367,230,487,524
IMG_36.JPG,800,600,motor,246,220,319,329
IMG_36.JPG,800,600,helm,416,233,455,274
IMG_36.JPG,800,600,helm,280,225,295,243
IMG_20190503_102730.jpg,800,600,motor,435,193,599,352
IMG_20190503_102730.jpg,800,600,helm,493,201,539,238
IMG_21.JPG,800,600,motor,365,159,427,305
IMG_21.JPG,800,600,helm,395,164,414,193
dsa dataset_190514_0003.jpg,1280,960,motor,326,110,748,935
dsa dataset_190514_0003.jpg,1280,960,helm,441,113,627,250
dsa dataset_190514_0003.jpg,1280,960,motor,937,78,1275,828
dsa dataset_190514_0003.jpg,1280,960,helm,1033,83,1204,203
IMG_64.JPG,800,600,motor,184,155,304,346
IMG_64.JPG,800,600,helm,228,164,263,200
IMG_64.JPG,800,600,helm,255,160,283,193
IMG_64.JPG,800,600,motor,595,154,617,201
20190503_103711.jpg,5664,4248,motor,1691,261,3991,4093
20190503_103711.jpg,5664,4248,helm,2178,255,2997,943
IMG_20190503_102814.jpg,800,600,motor,339,165,625,452
IMG_20190503_102814.jpg,800,600,helm,450,182,520,239
IMG_56.JPG,800,600,motor,96,145,287,453
IMG_56.JPG,800,600,helm,175,152,238,200
IMG_20190503_102825.jpg,800,600,motor,382,103,523,282
IMG_20190503_102825.jpg,800,600,helm,443,121,486,157
IMG_20190503_102358.jpg,800,600,motor,356,126,461,326
IMG_20190503_102358.jpg,800,600,helm,391,136,429,179
IMG_113.JPG,800,600,motor,368,194,396,255
IMG_113.JPG,800,600,motor,506,192,523,240
IMG_113.JPG,800,600,helm,379,193,391,206
IMG_83.JPG,800,600,motor,47,210,368,600
IMG_83.JPG,800,600,helm,193,210,288,299
IMG_83.JPG,800,600,motor,561,205,576,236
20190503_102457.jpg,5664,4248,motor,1297,124,3216,3474
20190503_102457.jpg,5664,4248,helm,1797,161,2584,824
IMG_20190503_102818.jpg,800,600,motor,32,171,378,497
IMG_20190503_102818.jpg,800,600,helm,162,186,263,242
20190503_102400.jpg,5664,4248,helm,2016,905,3716,3286
20190503_102400.jpg,5664,4248,motor,2184,861,3697,3261
20190503_102400.jpg,5664,4248,helm,2391,936,2997,1343
IMG_28.JPG,800,600,helm,497,222,518,241
IMG_28.JPG,800,600,helm,470,218,481,231
IMG_28.JPG,800,600,motor,490,217,533,346
IMG_28.JPG,800,600,motor,464,212,486,288
IMG_76.JPG,800,600,motor,273,168,393,399
IMG_76.JPG,800,600,helm,318,170,363,216
IMG_96.JPG,800,600,motor,158,134,321,457
IMG_96.JPG,800,600,helm,212,135,271,201
IMG_95.JPG,800,600,helm,190,181,275,250
IMG_95.JPG,800,600,motor,145,182,321,526
IMG_95.JPG,800,600,motor,481,184,499,225
dsa dataset_190514_0027.jpg,1280,960,motor,375,61,885,906
dsa dataset_190514_0027.jpg,1280,960,helm,515,69,695,214
IMG_20190503_102755.jpg,800,600,motor,371,236,466,325
IMG_20190503_102755.jpg,800,600,motor,472,245,622,398
IMG_20190503_102755.jpg,800,600,helm,532,250,576,278
IMG_20190503_102755.jpg,800,600,helm,403,244,422,266
IMG_97.JPG,800,600,motor,375,164,445,347
IMG_97.JPG,800,600,motor,313,163,382,285
IMG_97.JPG,800,600,motor,448,163,481,229
IMG_97.JPG,800,600,helm,395,163,432,199
IMG_97.JPG,800,600,helm,337,161,365,187
IMG_97.JPG,800,600,helm,457,162,472,179
IMG_1.JPG,800,600,motor,359,171,418,305
IMG_1.JPG,800,600,helm,376,174,403,200
IMG_1.JPG,800,600,helm,483,164,496,174
IMG_1.JPG,800,600,motor,477,161,501,223
IMG_48.JPG,800,600,helm,213,177,256,210
IMG_48.JPG,800,600,helm,268,180,297,210
IMG_48.JPG,800,600,motor,168,168,307,372
IMG_24.JPG,800,600,motor,175,166,294,390
IMG_24.JPG,800,600,motor,311,173,363,280
IMG_24.JPG,800,600,helm,226,168,262,207
IMG_24.JPG,800,600,helm,325,174,343,197
IMG_24.JPG,800,600,helm,346,175,362,194
IMG_82.JPG,800,600,motor,270,216,501,600
IMG_82.JPG,800,600,helm,358,220,441,305
IMG_35.JPG,800,600,helm,321,218,396,297
IMG_35.JPG,800,600,motor,255,210,435,594
IMG_75.JPG,800,600,motor,385,144,438,257
IMG_75.JPG,800,600,motor,502,144,517,180
IMG_75.JPG,800,600,helm,402,144,431,173
IMG_20190503_102820.jpg,800,600,motor,315,168,560,429
IMG_20190503_102820.jpg,800,600,helm,395,186,473,249
20190503_102446.jpg,5664,4248,motor,1897,555,3791,3730
20190503_102446.jpg,5664,4248,helm,2428,580,3091,1218
IMG_19.JPG,800,600,motor,26,153,215,439
IMG_19.JPG,800,600,helm,110,178,155,220
IMG_20190503_102601.jpg,800,600,motor,18,174,375,599
IMG_20190503_102601.jpg,800,600,motor,336,148,457,379
IMG_20190503_102601.jpg,800,600,motor,455,130,559,281
IMG_20190503_102601.jpg,800,600,helm,153,183,276,279
IMG_20190503_102601.jpg,800,600,helm,371,164,422,206
IMG_20190503_102601.jpg,800,600,helm,478,135,518,174
IMG_44.JPG,800,600,motor,119,237,275,459
IMG_44.JPG,800,600,motor,550,229,567,273
IMG_20190503_103008.jpg,800,600,motor,190,185,313,371
IMG_20190503_103008.jpg,800,600,motor,431,191,502,322
IMG_20190503_103008.jpg,800,600,motor,536,185,607,355
IMG_20190503_103008.jpg,800,600,helm,242,203,273,238
IMG_20190503_103008.jpg,800,600,helm,462,197,490,231
IMG_20190503_103008.jpg,800,600,helm,566,207,598,242
IMG_20190503_102843.jpg,800,600,motor,433,136,665,514
IMG_20190503_102843.jpg,800,600,helm,524,139,625,221
IMG_71.JPG,800,600,motor,83,177,182,303
IMG_71.JPG,800,600,motor,191,176,223,209
IMG_71.JPG,800,600,motor,471,175,509,240
IMG_71.JPG,800,600,helm,118,177,158,210
IMG_71.JPG,800,600,helm,195,177,212,191
IMG_71.JPG,800,600,helm,483,177,499,191
IMG_30.JPG,800,600,motor,61,166,262,465
IMG_30.JPG,800,600,helm,163,175,202,219
IMG_30.JPG,800,600,helm,204,173,236,210
IMG_20190503_102832.jpg,800,600,motor,416,123,572,356
IMG_20190503_102832.jpg,800,600,helm,476,132,554,197
IMG_60.JPG,800,600,motor,215,215,310,347
IMG_20190503_103121.jpg,800,600,motor,479,215,573,320
IMG_20190503_103121.jpg,800,600,helm,525,219,551,244
IMG_85.JPG,800,600,motor,261,200,336,334
IMG_85.JPG,800,600,helm,292,202,320,228
IMG_45.JPG,800,600,motor,127,253,318,563
IMG_45.JPG,800,600,motor,309,233,372,347
IMG_45.JPG,800,600,motor,443,222,487,321
IMG_45.JPG,800,600,helm,217,256,270,308
IMG_45.JPG,800,600,helm,338,233,351,252
IMG_45.JPG,800,600,helm,461,231,472,250
IMG_20190503_102819.jpg,800,600,motor,212,203,582,528
IMG_20190503_102819.jpg,800,600,helm,360,210,441,269
IMG_20190503_102819.jpg,800,600,motor,18,188,107,285
IMG_20190503_102819.jpg,800,600,motor,643,168,753,272
IMG_20190503_102819.jpg,800,600,helm,34,196,61,215
IMG_20190503_102819.jpg,800,600,helm,672,186,704,209
20190503_103635.jpg,5664,4248,motor,2253,24,4941,3730
20190503_103635.jpg,5664,4248,helm,2966,30,3778,530
IMG_20190503_102334.jpg,800,600,motor,288,128,415,318
IMG_20190503_102334.jpg,800,600,helm,331,142,390,176
IMG_20190503_102413.jpg,800,600,motor,229,167,314,310
IMG_20190503_102413.jpg,800,600,helm,260,173,294,197
dsa dataset_190514_0022.jpg,1280,960,motor,430,2,878,847
dsa dataset_190514_0022.jpg,1280,960,helm,506,7,675,104
dsa dataset_190514_0013.jpg,1280,960,motor,38,57,701,943
dsa dataset_190514_0013.jpg,1280,960,helm,229,91,388,235
IMG_20190503_102845.jpg,800,600,motor,413,131,654,451
IMG_20190503_102845.jpg,800,600,helm,515,170,594,226
IMG_20190503_103105.jpg,800,600,motor,572,121,641,278
IMG_20190503_103105.jpg,800,600,helm,604,139,634,191
IMG_27.JPG,800,600,motor,171,241,364,599
IMG_27.JPG,800,600,motor,437,226,470,294
IMG_27.JPG,800,600,motor,525,227,538,270
IMG_27.JPG,800,600,helm,265,236,316,291
IMG_27.JPG,800,600,helm,447,228,457,240
dsa dataset_190514_0034.jpg,1280,960,motor,404,78,918,957
dsa dataset_190514_0034.jpg,1280,960,helm,543,83,710,226
IMG_61.JPG,800,600,motor,212,174,379,492
IMG_61.JPG,800,600,helm,279,178,335,238
IMG_20190503_102815.jpg,800,600,motor,26,163,285,438
IMG_20190503_102815.jpg,800,600,motor,206,179,554,543
IMG_20190503_102815.jpg,800,600,helm,97,183,185,237
IMG_20190503_102815.jpg,800,600,helm,350,196,443,269
IMG_20190503_102535.jpg,800,600,motor,239,125,386,355
IMG_20190503_102535.jpg,800,600,helm,284,137,343,172
IMG_77.JPG,800,600,motor,255,126,335,270
IMG_77.JPG,800,600,motor,449,125,556,328
IMG_77.JPG,800,600,helm,277,127,314,160
IMG_77.JPG,800,600,helm,467,130,518,178
dsa dataset_190514_0033.jpg,1280,960,motor,395,13,921,933
dsa dataset_190514_0033.jpg,1280,960,helm,540,25,737,172
IMG_92.JPG,800,600,motor,427,171,468,260
IMG_92.JPG,800,600,motor,540,173,563,209
IMG_92.JPG,800,600,motor,361,169,394,240
IMG_92.JPG,800,600,helm,439,170,460,190
IMG_92.JPG,800,600,helm,369,170,385,189
20190503_103634.jpg,5664,4248,motor,3584,1093,4753,3649
dsa dataset_190514_0015.jpg,1280,960,motor,162,1,780,933
dsa dataset_190514_0015.jpg,1280,960,helm,289,7,506,155
20190503_103725.jpg,5664,4248,motor,2247,161,3909,3080
20190503_103725.jpg,5664,4248,helm,2828,230,3559,774
IMG_55.JPG,800,600,motor,401,160,477,305
IMG_55.JPG,800,600,helm,425,173,458,205
dsa dataset_190514_0030.jpg,1280,960,motor,621,140,914,674
dsa dataset_190514_0030.jpg,1280,960,helm,710,144,808,225
dsa dataset_190514_0030.jpg,1280,960,motor,986,122,1245,604
dsa dataset_190514_0030.jpg,1280,960,helm,1088,152,1159,226
20190503_103719.jpg,5664,4248,motor,2259,11,4466,3943
20190503_103719.jpg,5664,4248,helm,2691,68,3672,661
20190503_103541.jpg,5664,4248,motor,734,243,2947,3418
20190503_103541.jpg,5664,4248,helm,1197,280,1878,774
IMG_20190503_102924.jpg,800,600,motor,469,208,563,407
IMG_20190503_102924.jpg,800,600,helm,503,225,542,269
dsa dataset_190514_0026.jpg,1280,960,motor,426,113,926,958
dsa dataset_190514_0026.jpg,1280,960,helm,526,114,695,273
dsa dataset_190514_0026.jpg,1280,960,motor,841,63,1097,522
dsa dataset_190514_0026.jpg,1280,960,helm,899,76,1004,152
IMG_20190503_102835.jpg,800,600,motor,404,138,560,355
IMG_20190503_102835.jpg,800,600,motor,325,126,388,197
IMG_20190503_102835.jpg,800,600,helm,463,130,525,178
IMG_20190503_102835.jpg,800,600,helm,345,128,361,142
20190503_102449.jpg,5664,4248,motor,2041,611,3816,3743
20190503_102449.jpg,5664,4248,motor,1322,493,1966,1861
20190503_102449.jpg,5664,4248,helm,1516,505,1803,736
20190503_102449.jpg,5664,4248,helm,2397,636,3078,1130
IMG_34.JPG,800,600,motor,68,160,305,536
IMG_34.JPG,800,600,motor,425,170,474,278
IMG_34.JPG,800,600,helm,183,190,234,234
IMG_34.JPG,800,600,helm,443,173,459,191
IMG_20190503_103123.jpg,800,600,motor,365,163,532,462
IMG_20190503_103123.jpg,800,600,helm,450,191,489,238
IMG_20190503_102431.jpg,800,600,motor,196,176,271,285
IMG_20190503_102431.jpg,800,600,helm,225,178,249,205
IMG_32.JPG,800,600,motor,435,196,466,282
IMG_32.JPG,800,600,helm,77,236,197,350
IMG_32.JPG,800,600,helm,448,197,460,211
IMG_20190503_102951.jpg,800,600,motor,188,197,292,331
IMG_20190503_102951.jpg,800,600,motor,401,185,551,494
IMG_20190503_102951.jpg,800,600,motor,593,178,643,280
IMG_20190503_102951.jpg,800,600,helm,232,207,273,232
IMG_20190503_102951.jpg,800,600,helm,471,203,534,260
IMG_20190503_102951.jpg,800,600,helm,607,186,628,209
IMG_62.JPG,800,600,motor,227,118,391,443
IMG_62.JPG,800,600,helm,293,118,346,180
IMG_62.JPG,800,600,motor,31,102,202,329
IMG_62.JPG,800,600,helm,103,102,146,147
20190503_103606.jpg,5664,4248,motor,3003,174,4909,3805
20190503_103606.jpg,5664,4248,helm,3491,224,4259,843
IMG_116.JPG,800,600,motor,219,173,376,487
IMG_116.JPG,800,600,helm,287,176,337,228
IMG_63.JPG,800,600,motor,379,86,465,261
IMG_63.JPG,800,600,helm,411,89,446,123
IMG_20190503_102706.jpg,800,600,motor,86,234,460,597
IMG_20190503_102706.jpg,800,600,motor,425,225,623,399
IMG_20190503_102706.jpg,800,600,helm,266,256,343,334
IMG_20190503_102706.jpg,800,600,helm,521,238,563,275
20190503_103755.jpg,5664,4248,motor,441,243,3072,3918
20190503_103755.jpg,5664,4248,helm,1097,318,2197,1086
IMG_54.JPG,800,600,motor,342,130,505,506
IMG_54.JPG,800,600,helm,395,130,452,194
IMG_20.JPG,800,600,motor,333,156,410,337
IMG_20.JPG,800,600,helm,366,169,388,193
IMG_20190503_102505.jpg,800,600,motor,53,202,236,374
IMG_20190503_102505.jpg,800,600,helm,121,203,170,242
IMG_11.JPG,800,600,motor,192,191,316,399
IMG_11.JPG,800,600,motor,385,201,418,278
IMG_11.JPG,800,600,helm,245,201,275,240
IMG_11.JPG,800,600,helm,394,202,406,217
IMG_20190503_102839.jpg,800,600,motor,439,115,588,315
IMG_20190503_102839.jpg,800,600,helm,507,125,559,163
IMG_20190503_102839.jpg,800,600,motor,613,93,690,207
IMG_20190503_102839.jpg,800,600,helm,637,105,662,129
IMG_67.JPG,800,600,motor,2,112,127,283
IMG_67.JPG,800,600,motor,397,116,437,199
IMG_67.JPG,800,600,motor,444,121,494,224
IMG_67.JPG,800,600,helm,48,113,90,157
IMG_67.JPG,800,600,helm,406,118,429,139
IMG_67.JPG,800,600,helm,464,120,484,145
IMG_72.JPG,800,600,motor,374,198,429,313
IMG_72.JPG,800,600,helm,391,200,422,223
IMG_110.JPG,800,600,motor,447,170,499,299
IMG_110.JPG,800,600,helm,463,170,485,193
IMG_20190503_102617.jpg,800,600,motor,369,199,461,350
IMG_20190503_102617.jpg,800,600,helm,400,199,429,232
IMG_20190503_102441.jpg,800,600,motor,396,191,478,369
IMG_20190503_102441.jpg,800,600,helm,422,192,460,226
IMG_33.JPG,800,600,helm,200,207,246,254
IMG_33.JPG,800,600,helm,415,187,437,210
IMG_33.JPG,800,600,motor,123,196,306,503
IMG_33.JPG,800,600,motor,397,181,447,290
IMG_20190503_102407.jpg,800,600,motor,193,177,281,307
IMG_20190503_102407.jpg,800,600,motor,366,174,415,261
IMG_20190503_102407.jpg,800,600,helm,220,179,249,206
20190503_102516.jpg,5664,4248,motor,347,143,1053,1249
20190503_102516.jpg,5664,4248,motor,2016,111,4122,3624
20190503_102516.jpg,5664,4248,helm,2784,118,3459,655
IMG_38.JPG,800,600,motor,299,180,377,337
IMG_38.JPG,800,600,helm,325,183,352,205
dsa dataset_190514_0023.jpg,1280,960,motor,322,136,725,935
dsa dataset_190514_0023.jpg,1280,960,helm,400,137,595,276
20190503_103814.jpg,5664,4248,motor,684,49,3572,4111
20190503_103814.jpg,5664,4248,helm,1247,49,2391,661
IMG_2.JPG,800,600,motor,135,193,224,324
IMG_2.JPG,800,600,helm,169,201,195,225
IMG_2.JPG,800,600,motor,459,205,488,281
IMG_2.JPG,800,600,helm,467,205,482,220
IMG_23.JPG,800,600,motor,404,164,467,301
IMG_23.JPG,800,600,helm,425,165,445,191
dsa dataset_190514_0006.jpg,1280,960,motor,404,61,810,899
dsa dataset_190514_0006.jpg,1280,960,helm,488,65,681,207
IMG_20190503_102432.jpg,800,600,motor,256,182,337,296
IMG_20190503_102432.jpg,800,600,helm,281,186,307,207
IMG_20190503_102637.jpg,800,600,motor,316,179,613,506
IMG_20190503_102637.jpg,800,600,helm,467,196,544,264
IMG_39.JPG,800,600,helm,230,196,274,240
IMG_39.JPG,800,600,motor,139,184,315,479
IMG_26.JPG,800,600,helm,411,209,455,256
IMG_26.JPG,800,600,helm,383,218,392,233
IMG_26.JPG,800,600,motor,380,207,495,515
IMG_26.JPG,800,600,motor,364,219,402,295
IMG_104.JPG,800,600,motor,485,194,532,309
IMG_104.JPG,800,600,helm,498,199,517,221
dsa dataset_190514_0002.jpg,1280,960,motor,407,1,919,894
dsa dataset_190514_0002.jpg,1280,960,helm,549,10,752,137
IMG_20190503_102449.jpg,800,600,motor,284,162,410,382
IMG_20190503_102449.jpg,800,600,helm,337,169,380,208
IMG_17.JPG,800,600,motor,243,209,304,300
IMG_17.JPG,800,600,motor,456,206,481,269
IMG_17.JPG,800,600,helm,268,212,282,233
IMG_17.JPG,800,600,helm,465,211,475,223
IMG_41.JPG,800,600,helm,488,193,507,216
IMG_41.JPG,800,600,helm,372,190,389,210
IMG_41.JPG,800,600,helm,191,192,215,218
IMG_41.JPG,800,600,motor,169,189,246,311
IMG_41.JPG,800,600,motor,350,185,410,304
IMG_41.JPG,800,600,motor,475,190,520,295
dsa dataset_190514_0011.jpg,1280,960,motor,247,109,817,944
dsa dataset_190514_0011.jpg,1280,960,helm,454,135,627,302
20190503_103752.jpg,5664,4248,motor,1103,368,3647,4149
20190503_103752.jpg,5664,4248,helm,1897,611,2828,1386
IMG_20190503_102452.jpg,800,600,motor,287,165,419,348
IMG_20190503_102452.jpg,800,600,helm,321,187,350,222
IMG_20190503_103002.jpg,800,600,motor,394,174,487,365
IMG_20190503_103002.jpg,800,600,helm,423,185,478,234
IMG_59.JPG,800,600,motor,248,181,352,365
IMG_59.JPG,800,600,helm,291,184,328,223
IMG_52.JPG,800,600,motor,165,196,340,547
IMG_52.JPG,800,600,helm,246,202,306,254
20190503_103534.jpg,5664,4248,motor,1859,249,3741,3993
20190503_103534.jpg,5664,4248,helm,2291,293,3066,999
20190503_103620.jpg,5664,4248,motor,2559,180,4378,3361
20190503_103620.jpg,5664,4248,helm,3197,224,3978,843
IMG_20190503_102848.jpg,800,600,motor,471,129,625,365
IMG_20190503_102848.jpg,800,600,helm,550,146,589,194
IMG_20190503_102850.jpg,800,600,motor,71,144,176,230
IMG_20190503_102850.jpg,800,600,motor,336,121,607,496
IMG_20190503_102850.jpg,800,600,helm,104,149,123,170
IMG_20190503_102850.jpg,800,600,helm,471,156,541,226
dsa dataset_190514_0007.jpg,1280,960,motor,478,40,851,666
dsa dataset_190514_0007.jpg,1280,960,helm,581,48,714,148
IMG_87.JPG,800,600,motor,286,160,447,519
IMG_87.JPG,800,600,helm,342,170,403,232
IMG_15.JPG,800,600,motor,147,161,274,384
IMG_15.JPG,800,600,motor,323,167,425,411
IMG_15.JPG,800,600,motor,522,160,540,200
IMG_15.JPG,800,600,helm,203,159,232,190
IMG_15.JPG,800,600,helm,370,168,402,209
IMG_15.JPG,800,600,helm,342,167,372,200
IMG_7.JPG,800,600,motor,222,149,333,380
IMG_7.JPG,800,600,motor,528,154,543,198
IMG_7.JPG,800,600,helm,257,154,299,190
dsa dataset_190514_0014.jpg,1280,960,motor,208,11,806,951
dsa dataset_190514_0014.jpg,1280,960,helm,382,40,586,174
IMG_20190503_102941.jpg,800,600,motor,358,139,491,347
IMG_20190503_102941.jpg,800,600,helm,421,151,466,201
20190503_103659.jpg,5664,4248,motor,1422,393,3434,4168
20190503_103659.jpg,5664,4248,motor,4072,361,5664,3779
20190503_103659.jpg,5664,4248,helm,1947,474,2703,1130
20190503_103659.jpg,5664,4248,helm,4547,424,5359,949
IMG_20190503_102956.jpg,800,600,motor,481,115,574,322
IMG_20190503_102956.jpg,800,600,helm,525,119,568,171
20190503_102350.jpg,5664,4248,helm,2778,911,3984,3149
20190503_102350.jpg,5664,4248,motor,2734,955,3941,3111
20190503_102350.jpg,5664,4248,helm,3066,993,3622,1480
20190503_102350.jpg,5664,4248,motor,1184,805,1566,1505
20190503_102350.jpg,5664,4248,helm,1291,824,1409,924
20190503_102346.jpg,5664,4248,motor,1203,905,2134,2505
20190503_102346.jpg,5664,4248,motor,2741,799,3834,2718
20190503_102346.jpg,5664,4248,motor,3697,749,4328,1980
20190503_102346.jpg,5664,4248,helm,1434,949,1747,1236
20190503_102346.jpg,5664,4248,helm,3116,849,3566,1161
20190503_102346.jpg,5664,4248,helm,3903,830,4166,1011
IMG_20190503_102425.jpg,800,600,motor,333,177,422,326
IMG_20190503_102425.jpg,800,600,helm,353,185,384,209
20190503_102526.jpg,5664,4248,motor,2241,793,4134,3961
20190503_102526.jpg,5664,4248,helm,2703,811,3309,1393
IMG_20190503_102552.jpg,800,600,motor,356,189,420,286
IMG_20190503_102552.jpg,800,600,helm,380,193,401,210
IMG_89.JPG,800,600,motor,278,120,355,244
IMG_89.JPG,800,600,motor,435,126,465,189
IMG_89.JPG,800,600,helm,307,121,333,150
IMG_20190503_102509.jpg,800,600,motor,252,142,407,350
IMG_20190503_102509.jpg,800,600,helm,320,146,378,183
IMG_4.JPG,800,600,motor,162,184,301,413
IMG_4.JPG,800,600,motor,420,182,469,284
IMG_4.JPG,800,600,helm,214,184,257,225
IMG_4.JPG,800,600,helm,434,186,450,204
20190503_102514.jpg,5664,4248,motor,2153,155,4109,3555
20190503_102514.jpg,5664,4248,helm,2528,186,3266,843
IMG_40.JPG,800,600,motor,278,196,397,420
IMG_40.JPG,800,600,helm,325,203,358,240
IMG_20190503_102301.jpg,800,600,motor,237,159,371,379
IMG_20190503_102301.jpg,800,600,helm,278,168,344,202
IMG_20190503_102301.jpg,800,600,motor,554,150,601,240
IMG_20190503_102301.jpg,800,600,helm,573,154,589,174
Dataset indrasssssss + fathur_190514_0129.jpg,800,600,motor,413,267,445,343
Dataset indrasssssss + fathur_190514_0129.jpg,800,600,helm,423,264,439,279
IMG_20190503_103043.jpg,800,600,motor,419,171,606,420
IMG_20190503_103043.jpg,800,600,helm,503,168,578,230
IMG_78.JPG,800,600,motor,447,121,553,324
IMG_78.JPG,800,600,helm,485,124,524,166
IMG_20190503_102438.jpg,800,600,motor,136,191,245,321
IMG_20190503_102438.jpg,800,600,motor,360,175,443,302
IMG_20190503_102438.jpg,800,600,helm,170,196,208,220
IMG_20190503_102438.jpg,800,600,helm,393,179,427,202
dsa dataset_190514_0036.jpg,1280,960,motor,388,62,807,926
dsa dataset_190514_0036.jpg,1280,960,helm,549,69,732,224
IMG_8.JPG,800,600,motor,471,160,497,234
IMG_8.JPG,800,600,helm,481,161,492,177
IMG_101.JPG,800,600,motor,405,186,446,305
IMG_101.JPG,800,600,helm,417,190,438,211
IMG_101.JPG,800,600,motor,542,190,558,227
20190503_103609.jpg,5664,4248,motor,1609,99,3928,4168
20190503_103609.jpg,5664,4248,helm,2384,174,3203,811
IMG_43.JPG,800,600,helm,470,173,486,187
IMG_43.JPG,800,600,motor,453,170,501,266
IMG_51.JPG,800,600,motor,387,192,435,312
IMG_51.JPG,800,600,helm,398,197,424,216
IMG_51.JPG,800,600,motor,477,184,502,230
IMG_51.JPG,800,600,motor,529,185,552,231
IMG_20190503_102411.jpg,800,600,motor,325,180,434,366
IMG_20190503_102411.jpg,800,600,helm,364,183,396,220
IMG_20190503_102958.jpg,800,600,motor,475,121,575,322
IMG_20190503_102958.jpg,800,600,helm,514,146,552,184
20190503_103810.jpg,5664,4248,motor,1153,61,3584,4180
20190503_103810.jpg,5664,4248,helm,1634,99,2747,768
IMG_115.JPG,800,600,motor,461,211,511,323
IMG_115.JPG,800,600,motor,548,207,573,260
IMG_115.JPG,800,600,helm,479,212,504,233
IMG_20190503_102734.jpg,800,600,motor,431,185,675,414
IMG_20190503_102734.jpg,800,600,helm,529,197,599,239
IMG_20190503_102444.jpg,800,600,motor,115,192,292,444
IMG_20190503_102444.jpg,800,600,motor,243,166,351,344
IMG_20190503_102444.jpg,800,600,helm,174,194,228,240
IMG_20190503_102444.jpg,800,600,helm,279,194,313,219
IMG_47.JPG,800,600,motor,265,168,375,440
IMG_47.JPG,800,600,motor,388,166,437,304
IMG_47.JPG,800,600,motor,465,169,494,242
IMG_47.JPG,800,600,helm,308,173,345,224
IMG_47.JPG,800,600,helm,411,169,431,194
IMG_47.JPG,800,600,helm,471,170,484,184
IMG_99.JPG,800,600,motor,395,181,497,401
IMG_99.JPG,800,600,motor,391,176,425,251
IMG_99.JPG,800,600,helm,418,191,463,234
IMG_99.JPG,800,600,helm,401,179,415,192
dsa dataset_190514_0032.jpg,1280,960,motor,699,63,1138,854
dsa dataset_190514_0032.jpg,1280,960,helm,800,73,964,180
IMG_20190503_102913.jpg,800,600,motor,378,178,445,279
IMG_20190503_102913.jpg,800,600,motor,219,177,277,250
IMG_20190503_102913.jpg,800,600,motor,404,185,432,208
IMG_20190503_102913.jpg,800,600,helm,406,191,428,209
IMG_20190503_102913.jpg,800,600,helm,236,190,246,200
IMG_20190503_102640.jpg,800,600,motor,345,200,721,557
IMG_20190503_102640.jpg,800,600,helm,490,220,585,312
IMG_20190503_102419.jpg,800,600,motor,184,175,265,303
IMG_20190503_102419.jpg,800,600,helm,207,177,238,200
20190503_102444.jpg,5664,4248,motor,1253,61,3197,3574
20190503_102444.jpg,5664,4248,helm,1922,68,2628,705
IMG_65.JPG,800,600,motor,339,153,408,279
IMG_65.JPG,800,600,motor,477,155,522,250
IMG_65.JPG,800,600,helm,357,156,390,181
IMG_65.JPG,800,600,helm,492,159,513,181
20190503_103554.jpg,5664,4248,motor,1003,1061,3403,4193
20190503_103554.jpg,5664,4248,helm,1484,1055,2253,1561
IMG_20190503_102737.jpg,800,600,motor,76,216,632,585
IMG_20190503_102737.jpg,800,600,helm,339,231,472,320
dsa dataset_190514_0005.jpg,1280,960,helm,737,146,923,270
dsa dataset_190514_0005.jpg,1280,960,helm,888,281,1112,489
IMG_25.JPG,800,600,motor,155,239,327,490
IMG_25.JPG,800,600,helm,235,238,279,283
IMG_20190503_102349.jpg,800,600,motor,114,166,290,438
IMG_20190503_102349.jpg,800,600,helm,184,171,243,216
IMG_98.JPG,800,600,motor,121,198,342,500
IMG_98.JPG,800,600,motor,485,201,508,255
IMG_98.JPG,800,600,helm,211,202,272,261
20190503_103705.jpg,5664,4248,motor,1872,111,3297,2911
IMG_13.JPG,800,600,motor,170,134,264,296
IMG_13.JPG,800,600,motor,547,136,564,180
IMG_13.JPG,800,600,helm,207,147,234,178
IMG_20190503_103012.jpg,800,600,motor,115,171,184,238
IMG_20190503_103012.jpg,800,600,motor,390,150,450,256
IMG_20190503_103012.jpg,800,600,motor,464,160,538,314
IMG_20190503_103012.jpg,800,600,helm,137,175,156,191
IMG_20190503_103012.jpg,800,600,helm,421,160,445,185
IMG_20190503_103012.jpg,800,600,helm,479,168,509,203
IMG_20190503_102631.jpg,800,600,motor,355,137,744,530
IMG_20190503_102631.jpg,800,600,helm,543,177,624,247
IMG_20190503_102631.jpg,800,600,helm,643,174,740,240
20190503_102412.jpg,5664,4248,motor,1441,730,3766,4224
20190503_102412.jpg,5664,4248,helm,1984,743,2822,1355
IMG_94.JPG,800,600,motor,240,116,317,250
IMG_94.JPG,800,600,helm,265,124,292,156
IMG_20190503_103108.jpg,800,600,motor,266,174,401,360
IMG_20190503_103108.jpg,800,600,motor,519,170,672,426
IMG_20190503_103108.jpg,800,600,helm,319,184,381,226
20190503_102557.jpg,5664,4248,motor,2072,693,3403,3136
20190503_102557.jpg,5664,4248,helm,2334,724,2897,1093
20190503_102557.jpg,5664,4248,motor,216,480,784,1493
20190503_102557.jpg,5664,4248,helm,341,493,609,705
20190503_103717.jpg,5664,4248,motor,859,18,3359,4211
20190503_103717.jpg,5664,4248,helm,1491,30,2278,536
IMG_20190503_102302.jpg,800,600,motor,320,174,459,398
IMG_20190503_102302.jpg,800,600,helm,372,176,425,222
Dataset indrasssssss + fathur_190514_0128.jpg,800,600,motor,71,144,356,507
Dataset indrasssssss + fathur_190514_0128.jpg,800,600,helm,158,149,228,207
IMG_20190503_102615.jpg,800,600,motor,366,192,481,391
IMG_20190503_102615.jpg,800,600,motor,44,203,249,443
IMG_20190503_102615.jpg,800,600,helm,96,209,146,255
IMG_20190503_102615.jpg,800,600,helm,408,193,460,237
IMG_105.JPG,800,600,motor,188,175,297,353
IMG_105.JPG,800,600,helm,225,176,257,208
IMG_20190503_103018.jpg,800,600,motor,423,151,599,356
IMG_20190503_103018.jpg,800,600,helm,510,170,560,213
IMG_20190503_102614.jpg,800,600,motor,460,195,544,388
IMG_20190503_102614.jpg,800,600,helm,481,214,518,250
IMG_20190503_103127.jpg,800,600,motor,362,213,472,345
IMG_20190503_103127.jpg,800,600,motor,501,205,634,411
IMG_20190503_103127.jpg,800,600,helm,417,221,441,244
IMG_20190503_103127.jpg,800,600,helm,563,228,606,270
dsa dataset_190514_0031.jpg,1280,960,motor,192,228,782,948
dsa dataset_190514_0031.jpg,1280,960,helm,322,241,495,366
dsa dataset_190514_0004.jpg,1280,960,motor,407,25,733,626
dsa dataset_190514_0004.jpg,1280,960,kepala,508,63,599,139
IMG_20190503_103109.jpg,800,600,motor,401,185,520,345
IMG_20190503_103109.jpg,800,600,helm,453,189,490,227
IMG_6.JPG,800,600,motor,173,188,305,409
IMG_6.JPG,800,600,motor,425,179,475,279
IMG_6.JPG,800,600,helm,229,187,265,220
IMG_6.JPG,800,600,helm,439,185,457,207
IMG_58.JPG,800,600,motor,55,175,265,467
IMG_58.JPG,800,600,helm,138,179,193,231
IMG_22.JPG,800,600,motor,241,157,333,320
IMG_22.JPG,800,600,motor,379,160,439,304
IMG_22.JPG,800,600,motor,527,161,557,224
IMG_22.JPG,800,600,helm,277,170,304,194
IMG_22.JPG,800,600,helm,400,166,424,191
IMG_22.JPG,800,600,helm,302,162,324,190
IMG_20190503_102346.jpg,800,600,motor,226,136,322,280
IMG_20190503_102346.jpg,800,600,helm,257,151,286,179
IMG_20190503_102354.jpg,800,600,motor,392,137,477,315
IMG_20190503_102354.jpg,800,600,motor,336,133,392,270
IMG_20190503_102354.jpg,800,600,motor,258,131,324,248
IMG_20190503_102354.jpg,800,600,helm,281,134,307,157
IMG_20190503_102354.jpg,800,600,helm,349,139,375,162
IMG_20190503_102354.jpg,800,600,helm,419,142,457,174
20190503_102524.jpg,5664,4248,motor,2003,424,3772,3568
20190503_102524.jpg,5664,4248,helm,2409,443,3078,1024
IMG_57.JPG,800,600,motor,273,218,464,600
IMG_57.JPG,800,600,helm,342,218,412,297
IMG_90.JPG,800,600,motor,301,160,416,377
IMG_90.JPG,800,600,motor,566,157,589,210
IMG_90.JPG,800,600,helm,338,160,379,212
IMG_20190503_103050.jpg,800,600,motor,132,236,244,332
IMG_20190503_103050.jpg,800,600,motor,230,228,329,312
IMG_20190503_103050.jpg,800,600,helm,177,238,201,269
IMG_20190503_103050.jpg,800,600,helm,149,246,172,263
IMG_20190503_103050.jpg,800,600,helm,258,239,275,256
IMG_81.JPG,800,600,motor,356,190,435,327
IMG_81.JPG,800,600,helm,372,190,414,223
IMG_84.JPG,800,600,motor,124,168,273,391
IMG_31.JPG,800,600,helm,442,205,470,240
IMG_31.JPG,800,600,helm,485,193,497,208
IMG_31.JPG,800,600,motor,413,197,499,376
IMG_31.JPG,800,600,motor,480,191,501,246
IMG_49.JPG,800,600,motor,325,165,402,310
IMG_49.JPG,800,600,motor,461,162,494,238
IMG_49.JPG,800,600,motor,594,164,612,208
IMG_49.JPG,800,600,helm,352,173,378,207
IMG_49.JPG,800,600,helm,377,169,400,190
IMG_49.JPG,800,600,helm,471,170,484,182
IMG_93.JPG,800,600,motor,482,143,546,295
IMG_93.JPG,800,600,helm,496,148,527,176
20190503_102441.jpg,5664,4248,motor,1609,136,3928,3780
20190503_102441.jpg,5664,4248,helm,2397,211,3266,743
IMG_20190503_103117.jpg,800,600,motor,91,125,345,357
IMG_20190503_103117.jpg,800,600,motor,499,150,701,480
IMG_20190503_103117.jpg,800,600,helm,192,148,266,191
IMG_20190503_103117.jpg,800,600,helm,588,169,661,232
20190503_102533.jpg,5664,4248,motor,1478,30,3672,3718
20190503_102533.jpg,5664,4248,helm,2034,55,2916,599
IMG_37.JPG,800,600,helm,77,238,116,276
IMG_37.JPG,800,600,helm,124,223,164,260
IMG_37.JPG,800,600,motor,8,212,173,423
IMG_37.JPG,800,600,motor,385,235,441,352
IMG_20190503_103111.jpg,800,600,motor,339,157,452,277
IMG_20190503_103111.jpg,800,600,helm,390,156,417,188
20190503_103550.jpg,5664,4248,motor,2691,618,4097,2993
20190503_103550.jpg,5664,4248,helm,3122,649,3653,1024
IMG_86.JPG,800,600,motor,317,182,384,312
IMG_86.JPG,800,600,helm,338,189,365,214
20190503_102545.jpg,5664,4248,motor,1897,5,3709,3399
20190503_102545.jpg,5664,4248,helm,2203,155,2703,705
dsa dataset_190514_0008.jpg,1280,960,motor,174,3,786,947
dsa dataset_190514_0008.jpg,1280,960,helm,333,4,506,131
dsa dataset_190514_0001.jpg,1280,960,motor,627,61,906,787
dsa dataset_190514_0001.jpg,1280,960,kepala,730,91,885,229
dsa dataset_190514_0021.jpg,1280,960,motor,397,2,952,789
dsa dataset_190514_0021.jpg,1280,960,helm,574,6,784,154
IMG_53.JPG,800,600,motor,379,185,440,308
IMG_53.JPG,800,600,helm,400,188,425,210
dsa dataset_190514_0025.jpg,1280,960,motor,291,120,834,951
dsa dataset_190514_0025.jpg,1280,960,helm,469,129,633,274
IMG_16.JPG,800,600,motor,435,220,546,536
IMG_16.JPG,800,600,helm,477,240,514,283
IMG_20190503_102408.jpg,800,600,motor,143,185,265,340
IMG_20190503_102408.jpg,800,600,helm,197,185,231,212
20190503_103637.jpg,5664,4248,motor,1784,5,4134,4174
20190503_103637.jpg,5664,4248,helm,2284,43,3416,718
20190503_103643.jpg,5664,4248,motor,2672,430,4259,3561
20190503_103643.jpg,5664,4248,motor,3984,286,5184,2886
IMG_20190503_102529.jpg,800,600,motor,148,109,337,369
IMG_20190503_102529.jpg,800,600,helm,221,120,290,162
20190503_103757.jpg,5664,4248,motor,334,280,3122,4211
20190503_103757.jpg,5664,4248,helm,953,349,1809,1043
IMG_102.JPG,800,600,motor,92,190,355,590
IMG_102.JPG,800,600,helm,220,209,279,282
IMG_102.JPG,800,600,helm,285,196,335,251
IMG_20190503_102745.jpg,800,600,motor,433,189,589,362
IMG_20190503_102745.jpg,800,600,helm,501,208,533,249
20190503_102344.jpg,5664,4248,motor,2366,993,3366,3118
20190503_102344.jpg,5664,4248,motor,3991,924,5664,3775
20190503_102344.jpg,5664,4248,helm,2516,1036,2953,1349
20190503_102344.jpg,5664,4248,helm,4541,949,5184,1393
20190503_102538.jpg,5664,4248,motor,2484,74,4122,3086
20190503_102538.jpg,5664,4248,motor,1272,43,2141,1918
20190503_102538.jpg,5664,4248,helm,1547,80,1941,393
20190503_102538.jpg,5664,4248,helm,2922,111,3541,730
dsa dataset_190514_0038.jpg,1280,960,motor,825,239,1074,817
dsa dataset_190514_0040.jpg,1280,960,motor,407,3,940,958
dsa dataset_190514_0040.jpg,1280,960,helm,519,4,745,157
IMG_109.JPG,800,600,motor,514,172,534,222
IMG_109.JPG,800,600,helm,522,171,531,182
IMG_29.JPG,800,600,motor,135,169,303,490
IMG_29.JPG,800,600,helm,216,177,264,229
IMG_20190503_103054.jpg,800,600,motor,307,151,545,471
IMG_20190503_103054.jpg,800,600,helm,424,171,485,237
IMG_20190503_103054.jpg,800,600,helm,490,179,534,236
20190503_102448.jpg,5664,4248,motor,2534,818,4059,3505
20190503_102448.jpg,5664,4248,motor,16,599,1116,2661
20190503_102448.jpg,5664,4248,helm,241,618,784,1024
20190503_102448.jpg,5664,4248,helm,2803,849,3459,1286
20190503_102353.jpg,5664,4248,motor,1334,993,2503,3011
20190503_102353.jpg,5664,4248,helm,1622,999,2228,1436
20190503_102353.jpg,5664,4248,motor,353,749,978,1855
20190503_102353.jpg,5664,4248,helm,516,780,753,1011
20190503_102353.jpg,5664,4248,motor,2291,830,3272,2386
20190503_102353.jpg,5664,4248,motor,2584,868,2959,1211
20190503_102353.jpg,5664,4248,helm,2591,855,2903,1193
20190503_103615.jpg,5664,4248,motor,1828,274,3791,4211
20190503_103615.jpg,5664,4248,helm,2347,361,3241,1074
dsa dataset_190514_0039.jpg,1280,960,motor,563,3,1091,828
dsa dataset_190514_0039.jpg,1280,960,helm,671,6,859,115
dsa dataset_190514_0028.jpg,1280,960,motor,186,32,692,777
dsa dataset_190514_0028.jpg,1280,960,helm,263,44,425,173
IMG_69.JPG,800,600,motor,326,220,492,559
IMG_20190503_102708.jpg,800,600,motor,261,228,524,501
IMG_20190503_102708.jpg,800,600,helm,348,231,410,285
IMG_112.JPG,800,600,motor,387,165,435,269
IMG_112.JPG,800,600,helm,402,167,418,189
IMG_108.JPG,800,600,motor,379,188,452,360
IMG_108.JPG,800,600,motor,526,193,559,275
IMG_108.JPG,800,600,helm,403,197,429,226
IMG_108.JPG,800,600,helm,538,194,553,210
IMG_66.JPG,800,600,motor,191,107,360,434
IMG_66.JPG,800,600,helm,252,108,315,164
dsa dataset_190514_0009.jpg,1280,960,motor,464,13,1022,884
dsa dataset_190514_0009.jpg,1280,960,helm,604,21,836,159
IMG_9.JPG,800,600,motor,168,230,334,524
IMG_9.JPG,800,600,motor,543,230,575,338
IMG_9.JPG,800,600,helm,245,234,290,276
IMG_9.JPG,800,600,helm,555,233,566,249
IMG_50.JPG,800,600,helm,215,187,252,228
IMG_50.JPG,800,600,motor,168,180,303,443
IMG_5.JPG,800,600,motor,405,151,453,264
IMG_5.JPG,800,600,helm,425,154,439,173
dsa dataset_190514_0024.jpg,1280,960,motor,460,67,860,932
dsa dataset_190514_0024.jpg,1280,960,helm,537,73,685,198
IMG_20190503_102922.jpg,800,600,motor,379,228,484,429
IMG_20190503_102922.jpg,800,600,motor,493,227,534,329
IMG_20190503_102922.jpg,800,600,helm,425,236,458,276
IMG_20190503_102922.jpg,800,600,helm,504,232,524,250
20190503_103645.jpg,5664,4248,motor,1934,49,4197,3955
20190503_103645.jpg,5664,4248,helm,2466,61,3216,661
IMG_20190503_103045.jpg,800,600,motor,250,158,531,452
IMG_20190503_103045.jpg,800,600,helm,384,168,443,221
IMG_20190503_103045.jpg,800,600,helm,449,159,496,213
IMG_68.JPG,800,600,motor,1,181,184,528
IMG_68.JPG,800,600,helm,46,190,117,258
IMG_20190503_102416.jpg,800,600,motor,285,156,366,274
IMG_20190503_102416.jpg,800,600,helm,311,171,328,189
dsa dataset_190514_0010.jpg,1280,960,motor,510,65,873,695
dsa dataset_190514_0010.jpg,1280,960,helm,645,66,784,173
IMG_20190503_102540.jpg,800,600,motor,444,138,537,329
IMG_20190503_102540.jpg,800,600,helm,476,152,507,197
IMG_20190503_102646.jpg,800,600,motor,262,123,652,529
IMG_20190503_102555.jpg,800,600,motor,313,188,419,361
IMG_20190503_102555.jpg,800,600,helm,347,191,377,227
IMG_20190503_102656.jpg,800,600,motor,325,232,473,397
IMG_20190503_102656.jpg,800,600,motor,507,233,790,562
IMG_20190503_102656.jpg,800,600,helm,384,243,421,264
IMG_20190503_102656.jpg,800,600,helm,696,244,794,344
IMG_20190503_102710.jpg,800,600,motor,166,213,409,444
IMG_20190503_102710.jpg,800,600,helm,269,240,324,285
IMG_14.JPG,800,600,motor,62,178,227,440
IMG_14.JPG,800,600,helm,131,189,172,230
IMG_14.JPG,800,600,helm,165,181,198,219
IMG_14.JPG,800,600,helm,215,184,238,212
IMG_14.JPG,800,600,helm,238,180,260,208
IMG_14.JPG,800,600,motor,420,177,435,221
IMG_14.JPG,800,600,helm,424,178,432,188
IMG_20190503_102342.jpg,800,600,motor,377,136,440,284
IMG_20190503_102342.jpg,800,600,motor,317,126,359,204
IMG_20190503_102342.jpg,800,600,helm,393,140,418,164
IMG_20190503_102342.jpg,800,600,helm,328,128,347,141
IMG_74.JPG,800,600,motor,302,194,363,307
IMG_74.JPG,800,600,motor,412,192,447,264
IMG_74.JPG,800,600,motor,469,200,495,253
IMG_74.JPG,800,600,helm,324,194,348,220
IMG_74.JPG,800,600,helm,420,197,436,212
IMG_74.JPG,800,600,helm,477,200,490,213
IMG_103.JPG,800,600,motor,221,199,380,540
IMG_103.JPG,800,600,helm,282,201,320,250
IMG_20190503_102728.jpg,800,600,motor,447,137,595,297
IMG_20190503_102728.jpg,800,600,helm,525,147,565,184
IMG_10.JPG,800,600,motor,381,156,435,270
IMG_10.JPG,800,600,motor,491,167,533,284
IMG_10.JPG,800,600,motor,462,164,491,260
IMG_10.JPG,800,600,helm,405,162,418,179
IMG_10.JPG,800,600,helm,501,165,525,188
IMG_10.JPG,800,600,helm,473,165,485,182
IMG_20190503_103130.jpg,800,600,motor,391,192,516,367
IMG_20190503_103130.jpg,800,600,helm,442,193,488,251
IMG_20190503_103136.jpg,800,600,motor,399,204,511,397
IMG_20190503_103136.jpg,800,600,helm,451,245,491,281
IMG_20190503_102558.jpg,800,600,motor,410,189,522,360
IMG_20190503_102558.jpg,800,600,helm,439,193,484,226
IMG_79.JPG,800,600,motor,11,167,149,305
IMG_79.JPG,800,600,motor,237,167,348,366
IMG_79.JPG,800,600,motor,506,171,545,240
IMG_79.JPG,800,600,helm,74,166,114,199
IMG_79.JPG,800,600,helm,274,167,318,205
IMG_79.JPG,800,600,helm,521,170,535,190
IMG_80.JPG,800,600,motor,235,136,390,485
IMG_80.JPG,800,600,helm,288,140,351,206
IMG_20190503_102532.jpg,800,600,helm,103,100,279,301
IMG_20190503_102532.jpg,800,600,motor,118,102,261,303
IMG_20190503_102532.jpg,800,600,helm,166,119,204,152
IMG_20190503_102945.jpg,800,600,motor,35,204,130,294
IMG_20190503_102945.jpg,800,600,motor,349,200,502,415
IMG_20190503_102945.jpg,800,600,helm,56,217,84,237
IMG_20190503_102945.jpg,800,600,helm,415,218,478,263
20190503_103632.jpg,5664,4248,motor,2434,24,4234,4086
IMG_20190503_102812.jpg,800,600,motor,247,160,496,428
IMG_20190503_102812.jpg,800,600,motor,478,155,662,335
IMG_20190503_102812.jpg,800,600,motor,713,153,800,242
IMG_20190503_102812.jpg,800,600,helm,357,177,413,238
IMG_20190503_102812.jpg,800,600,helm,390,179,471,232
IMG_20190503_102812.jpg,800,600,helm,559,168,619,214
IMG_20190503_102812.jpg,800,600,helm,759,167,779,188
dsa dataset_190514_0012.jpg,1280,960,motor,97,58,736,891
dsa dataset_190514_0012.jpg,1280,960,helm,238,80,455,232
dsa dataset_190514_0037.jpg,1280,960,motor,534,3,947,926
IMG_20190503_102447.jpg,800,600,motor,362,143,459,286
IMG_20190503_102447.jpg,800,600,helm,397,149,437,182
IMG_88.JPG,800,600,motor,125,181,324,513
IMG_88.JPG,800,600,helm,205,186,260,243
IMG_70.JPG,800,600,motor,183,190,259,290
IMG_70.JPG,800,600,motor,392,194,462,346
IMG_70.JPG,800,600,motor,525,198,540,239
IMG_70.JPG,800,600,helm,218,190,243,214
IMG_70.JPG,800,600,helm,417,196,454,231
20190503_102357.jpg,5664,4248,motor,703,793,1884,2918
20190503_102357.jpg,5664,4248,motor,3753,686,5234,3318
20190503_102357.jpg,5664,4248,helm,1022,805,1428,1224
20190503_102357.jpg,5664,4248,helm,4247,724,4778,1205
IMG_91.JPG,800,600,motor,361,134,425,268
IMG_91.JPG,800,600,helm,381,135,413,167
20190503_103448.jpg,5664,4248,motor,1847,511,4041,4230
20190503_103448.jpg,5664,4248,helm,2322,574,3166,1243
IMG_20190503_102751.jpg,800,600,motor,336,216,733,549
IMG_20190503_102751.jpg,800,600,helm,495,229,599,291
20190503_103715.jpg,5664,4248,motor,2228,105,3747,3074
20190503_103715.jpg,5664,4248,helm,2541,124,3084,761
IMG_107.JPG,800,600,motor,109,181,345,589
IMG_107.JPG,800,600,helm,213,195,281,270
IMG_46.JPG,800,600,helm,360,194,382,225
IMG_46.JPG,800,600,motor,317,183,405,358
IMG_46.JPG,800,600,motor,486,190,506,241
IMG_114.JPG,800,600,motor,133,207,331,481
IMG_114.JPG,800,600,motor,375,199,438,327
IMG_114.JPG,800,600,motor,581,203,601,250
IMG_114.JPG,800,600,helm,228,207,279,250
IMG_114.JPG,800,600,helm,398,200,423,225
IMG_73.JPG,800,600,motor,316,222,509,600
IMG_73.JPG,800,600,helm,385,220,461,302
IMG_106.JPG,800,600,motor,481,204,529,304
IMG_106.JPG,800,600,helm,494,204,513,223
IMG_42.JPG,800,600,motor,349,174,420,346
IMG_42.JPG,800,600,helm,379,190,399,223
IMG_12.JPG,800,600,motor,149,137,293,345
IMG_12.JPG,800,600,helm,215,145,246,177
IMG_12.JPG,800,600,motor,471,132,494,181
IMG_20190503_103053.jpg,800,600,motor,313,174,454,345
IMG_20190503_103053.jpg,800,600,helm,367,195,405,234
IMG_20190503_103112.jpg,800,600,motor,404,183,499,296
IMG_20190503_102332.jpg,800,600,motor,156,99,331,374
IMG_20190503_102332.jpg,800,600,helm,228,132,272,184
IMG_20190503_102758.jpg,800,600,motor,211,210,672,584
IMG_20190503_102758.jpg,800,600,helm,378,226,496,303
IMG_20190503_102758.jpg,800,600,helm,504,213,608,277
IMG_20190503_102455.jpg,800,600,motor,297,176,417,369
IMG_20190503_102455.jpg,800,600,helm,343,189,382,231
IMG_20190503_102837.jpg,800,600,motor,402,125,519,250
IMG_20190503_102837.jpg,800,600,motor,208,140,291,218
IMG_20190503_102837.jpg,800,600,motor,272,132,343,201
IMG_20190503_102837.jpg,800,600,helm,449,133,481,161
IMG_20190503_102837.jpg,800,600,helm,232,147,251,161
IMG_20190503_102837.jpg,800,600,helm,290,134,309,156
IMG_20190503_103024.jpg,800,600,motor,331,149,660,502
IMG_20190503_103024.jpg,800,600,helm,493,162,596,243
IMG_20190503_102649.jpg,800,600,motor,355,215,562,428
IMG_20190503_102649.jpg,800,600,helm,435,230,478,274
IMG_20190503_102915.jpg,800,600,motor,162,168,319,399
IMG_20190503_102915.jpg,800,600,motor,473,161,608,397
IMG_20190503_102915.jpg,800,600,helm,232,194,300,243
IMG_20190503_102915.jpg,800,600,helm,525,198,570,246
IMG_3.JPG,800,600,motor,268,209,355,371
IMG_3.JPG,800,600,motor,516,203,548,273
IMG_3.JPG,800,600,helm,304,209,340,238
IMG_3.JPG,800,600,helm,529,204,543,218
dsa dataset_190514_0035.jpg,1280,960,motor,581,24,1008,759
dsa dataset_190514_0035.jpg,1280,960,helm,721,51,889,167
dsa dataset_190514_0035.jpg,1280,960,motor,967,54,1191,547
dsa dataset_190514_0035.jpg,1280,960,helm,1018,61,1143,154
